HW9 Modeling Practice
…
Here we can see that the RF Model is the best model with the lowest RMSE and MAE.

Extract the Final Model Fits and Report a Summary of Each Model

– For the LASSO and MLR models, report the final coefficient tables – For the regression tree model, give a plot of the final fit – For the bagged tree and random forest models, produce a variable importance plot ∗ For the random forest model, this is a bit complicated. Check this out and see if you can get it to work.

MLR Final Model Fit and Summary

MLR_final |> 
  extract_fit_parsnip() |> 
  tidy()

# A tibble: 21 × 5
   term                  estimate std.error statistic      p.value
   <chr>                    <dbl>     <dbl>     <dbl>        <dbl>
 1 (Intercept)             13969.     2527.    5.53   0.0000000811
 2 `SUM_RAIN_FALL(mm)`     -1906.      651.   -2.93   0.00372     
 3 `SUM_SNOW_FALL(cm)`      -107.      364.   -0.295  0.768       
 4 `TEMP(deg C)_MEAN`       -464.     6330.   -0.0733 0.942       
 5 `RH(%)_MEAN`            -2246.     2503.   -0.897  0.370       
 6 `WD_SPD(m/s)_MEAN`       -635.      374.   -1.70   0.0907      
 7 `VIS(10m)_MEAN`           579.      500.    1.16   0.248       
 8 `DP_TEMP(deg C)_MEAN`    5503.     7645.    0.720  0.472       
 9 `SOL_RAD(MJ/m2)_MEAN`    2921.      600.    4.87   0.00000197  
10 SEASONS_Spring           2930.     2560.    1.14   0.253       
# ℹ 11 more rows
…
